棒グラフ
…
library(estatapi)

このサービスは、政府統計総合窓口(e-Stat)のAPI機能を使用していますが、サービスの内容は国によって保証されたものではありません。

statsDataId <- "0003408614"
(meta_info <- estat_getMetaInfo(appId = appId, statsDataId = statsDataId))

$tab
# A tibble: 1 × 4
  `@code` `@name` `@level` `@unit`
  <chr>   <chr>   <chr>    <chr>  
1 0140    金額    ""       千円   

$cat01
# A tibble: 29 × 4
   `@code` `@name`                   `@level` `@parentCode`
   <chr>   <chr>                     <chr>    <chr>        
 1 0100    事業総利益                1        <NA>         
 2 0110    事業総利益_信用事業収益   2        0100         
 3 0200    事業総利益_信用事業費用   2        0100         
 4 0330    事業総利益_信用事業総利益 2        0100         
 5 0340    事業総利益_共済事業収益   2        0100         
 6 0380    事業総利益_共済事業費用   2        0100         
 7 0460    事業総利益_共済事業総利益 2        0100         
 8 0470    事業総利益_購買事業収益   2        0100         
 9 0520    事業総利益_購買事業費用   2        0100         
10 0600    事業総利益_購買事業総利益 2        0100         
# ℹ 19 more rows

$area
# A tibble: 48 × 4
   `@code` `@name` `@level` `@parentCode`
   <chr>   <chr>   <chr>    <chr>        
 1 00000   全国    1        <NA>         
 2 01000   北海道  2        00000        
 3 02000   青森県  3        01100        
 4 03000   岩手県  3        01100        
 5 04000   宮城県  3        01100        
 6 05000   秋田県  3        01100        
 7 06000   山形県  3        01100        
 8 07000   福島県  3        01100        
 9 08000   茨城県  3        07100        
10 09000   栃木県  3        07100        
# ℹ 38 more rows
…
# 統計データ取得
df <- estat_getStatsData(
  appId = appId,
  statsDataId = statsDataId
)

Fetching record 1-19485... (total: 19485 records)

df

# A tibble: 19,485 × 11
   tab_code 表章項目 cat01_code `損益計算書（総括）` area_code 都道府県
   <chr>    <chr>    <chr>      <chr>                <chr>     <chr>   
 1 0140     金額     0100       事業総利益           00000     全国    
 2 0140     金額     0100       事業総利益           00000     全国    
 3 0140     金額     0100       事業総利益           00000     全国    
 4 0140     金額     0100       事業総利益           00000     全国    
 5 0140     金額     0100       事業総利益           00000     全国    
 6 0140     金額     0100       事業総利益           00000     全国    
 7 0140     金額     0100       事業総利益           00000     全国    
 8 0140     金額     0100       事業総利益           00000     全国    
 9 0140     金額     0100       事業総利益           00000     全国    
10 0140     金額     0100       事業総利益           00000     全国    
# ℹ 19,475 more rows
# ℹ 5 more variables: time_code <chr>, `時間軸（年次）` <chr>, unit <chr>,
#   value <dbl>, annotation <chr>
…
