データの整形
…
$cat02
# A tibble: 5 × 3
  `@code` `@name`                  `@level`
  <chr>   <chr>                    <chr>   
1 100     正組合員数及び准組合員数 1       
2 150     正組合員数               1       
3 160     正組合員戸数             1       
4 170     准組合員数               1       
5 180     准組合員戸数             1       

$area
# A tibble: 48 × 4
   `@code` `@name` `@level` `@parentCode`
   <chr>   <chr>   <chr>    <chr>        
 1 00000   全国    1        <NA>         
 2 01000   北海道  2        00000        
 3 02000   青森県  3        01100        
 4 03000   岩手県  3        01100        
 5 04000   宮城県  3        01100        
 6 05000   秋田県  3        01100        
 7 06000   山形県  3        01100        
 8 07000   福島県  3        01100        
 9 08000   茨城県  3        07100        
10 09000   栃木県  3        07100        
# ℹ 38 more rows
…
# 統計データ取得
df <- estat_getStatsData(
  appId = appId,
  statsDataId = statsDataId
)

Fetching record 1-8064... (total: 8064 records)

df

# A tibble: 8,064 × 11
   cat01_code `個人・団体` cat02_code 組合          area_code 都道府県 time_code
   <chr>      <chr>        <chr>      <chr>         <chr>     <chr>    <chr>    
 1 100        計           100        正組合員数及び准組合員数… 00000     全国     20060000…
 2 100        計           100        正組合員数及び准組合員数… 00000     全国     20050000…
 3 100        計           100        正組合員数及び准組合員数… 00000     全国     20040000…
 4 100        計           100        正組合員数及び准組合員数… 00000     全国     20030000…
 5 100        計           100        正組合員数及び准組合員数… 00000     全国     20020000…
 6 100        計           100        正組合員数及び准組合員数… 00000     全国     20010000…
 7 100        計           100        正組合員数及び准組合員数… 00000     全国     20000000…
 8 100        計           100        正組合員数及び准組合員数… 00000     全国     19990000…
 9 100        計           100        正組合員数及び准組合員数… 00000     全国     19980000…
10 100        計           100        正組合員数及び准組合員数… 00000     全国     19970000…
# ℹ 8,054 more rows
# ℹ 4 more variables: `時間軸（年次）` <chr>, unit <chr>, value <dbl>,
#   annotation <chr>
…
df3 <- df2[df2$都道府県 == "全国", ]

3 作図

作図のためには，ここまでで整形したデータフレームから，作図に必要な行を抽出すればよいです。

3.1 折れ線グラフの作図

まず，組合員の合計の折れ線グラフを描くことにしましょう。 必要なデータのみを抽出します。

df_JAmembers <- df3[grep("計", df3$`個人・団体`), ]
df_JAmembers

# A tibble: 42 × 12
   cat01_code `個人・団体` cat02_code 組合          area_code 都道府県 time_code
   <chr>      <chr>        <chr>      <chr>         <chr>     <chr>    <chr>    
 1 100        計           100        正組合員数及び准組合員数… 00000     全国     20060000…
 2 100        計           100        正組合員数及び准組合員数… 00000     全国     20050000…
 3 100        計           100        正組合員数及び准組合員数… 00000     全国     20040000…
 4 100        計           100        正組合員数及び准組合員数… 00000     全国     20030000…
 5 100        計           100        正組合員数及び准組合員数… 00000     全国     20020000…
 6 100        計           100        正組合員数及び准組合員数… 00000     全国     20010000…
 7 100        計           100        正組合員数及び准組合員数… 00000     全国     20000000…
 8 100        計           100        正組合員数及び准組合員数… 00000     全国     19990000…
 9 100        計           100        正組合員数及び准組合員数… 00000     全国     19980000…
10 100        計           100        正組合員数及び准組合員数… 00000     全国     19970000…
# ℹ 32 more rows
# ℹ 5 more variables: `時間軸（年次）` <chr>, unit <chr>, value <dbl>,
#   annotation <chr>, 年 <dbl>

あるいは，tidyverse では次のようになります。

df_JAmembers <- df3 |>
  filter(grepl("計", `個人・団体`))
df_JAmembers

# A tibble: 42 × 12
   cat01_code `個人・団体` cat02_code 組合          area_code 都道府県 time_code
   <chr>      <chr>        <chr>      <chr>         <chr>     <chr>    <chr>    
 1 100        計           100        正組合員数及び准組合員数… 00000     全国     20060000…
 2 100        計           100        正組合員数及び准組合員数… 00000     全国     20050000…
 3 100        計           100        正組合員数及び准組合員数… 00000     全国     20040000…
 4 100        計           100        正組合員数及び准組合員数… 00000     全国     20030000…
 5 100        計           100        正組合員数及び准組合員数… 00000     全国     20020000…
 6 100        計           100        正組合員数及び准組合員数… 00000     全国     20010000…
 7 100        計           100        正組合員数及び准組合員数… 00000     全国     20000000…
 8 100        計           100        正組合員数及び准組合員数… 00000     全国     19990000…
 9 100        計           100        正組合員数及び准組合員数… 00000     全国     19980000…
10 100        計           100        正組合員数及び准組合員数… 00000     全国     19970000…
# ℹ 32 more rows
# ℹ 5 more variables: `時間軸（年次）` <chr>, unit <chr>, value <dbl>,
#   annotation <chr>, 年 <dbl>
…
4 データ追加

最近のデータを追加しましょう。

4.1 2022年

農業協同組合及び同連合会一斉調査 / 確報 総合農協統計表 令和４事業年度総合農協統計表

https://www.e-stat.go.jp/stat-search/database?statdisp_id=0002110844

statsDataId <- "0002110844"
(meta_info <- estat_getMetaInfo(appId = appId, statsDataId = statsDataId))

$cat01
# A tibble: 58 × 3
   `@code` `@name`         `@level`
   <chr>   <chr>           <chr>   
 1 1001    全国            1       
 2 1002    １組合当たり    1       
 3 1003    地域_北海道     1       
 4 1004    地域_東北       1       
 5 1005    地域_関東       1       
 6 1006    地域_北陸       1       
 7 1007    地域_東海       1       
 8 1008    地域_近畿       1       
 9 1009    地域_中国・四国 1       
10 1010    地域_九州       1       
# ℹ 48 more rows
…
4.2 2021年

農業協同組合及び同連合会一斉調査 / 確報 総合農協統計表 令和３事業年度総合農協統計表

https://www.e-stat.go.jp/stat-search/database?statdisp_id=0002063186

statsDataId <- "0002063186"
(meta_info <- estat_getMetaInfo(appId = appId, statsDataId = statsDataId))

$cat01
# A tibble: 58 × 3
   `@code` `@name`         `@level`
   <chr>   <chr>           <chr>   
 1 1001    全国            1       
 2 1002    1組合当たり     1       
 3 1003    地域_北海道     1       
 4 1004    地域_東北       1       
 5 1005    地域_関東       1       
 6 1006    地域_北陸       1       
 7 1007    地域_東海       1       
 8 1008    地域_近畿       1       
 9 1009    地域_中国・四国 1       
10 1010    地域_九州       1       
# ℹ 48 more rows
…
4.3 2020年

農業協同組合及び同連合会一斉調査 / 確報 総合農協統計表 令和２事業年度総合農協統計表

https://www.e-stat.go.jp/stat-search/database?statdisp_id=0001998576

statsDataId <- "0001998576"
(meta_info <- estat_getMetaInfo(appId = appId, statsDataId = statsDataId))

$cat01
# A tibble: 63 × 3
   `@code` `@name`         `@level`
   <chr>   <chr>           <chr>   
 1 1001    平.27           1       
 2 1002    平.28           1       
 3 1003    平.29           1       
 4 1004    平.30           1       
 5 1005    令.元           1       
 6 1006    令.2            1       
 7 1007    1組合当たり     1       
 8 1008    【地域】_北海道 1       
 9 1009    【地域】_東北   1       
10 1010    【地域】_関東   1       
# ℹ 53 more rows
…
4.4 2021年

農業協同組合及び同連合会一斉調査 / 確報 総合農協統計表 令和元事業年度総合農協統計表

https://www.e-stat.go.jp/stat-search/database?statdisp_id=0002015583

statsDataId <- "0002015583"
(meta_info <- estat_getMetaInfo(appId = appId, statsDataId = statsDataId))

$cat01
# A tibble: 61 × 3
   `@code` `@name`      `@level`
   <chr>   <chr>        <chr>   
 1 1001    平26(2014)   1       
 2 1002    平27(2015)   1       
 3 1003    平28(2016)   1       
 4 1004    平29(2017)   1       
 5 1005    平30(2018)   1       
 6 1006    令元(2019)   1       
 7 1007    1組合当たり  1       
 8 1008    東北_1北海道 1       
 9 1009    東北_2青森   1       
10 1010    東北_3岩手   1       
# ℹ 51 more rows
…
new_df <- bind_rows(
  new_df,
  df_long
)

5 作図

df_JAmembers <- new_df |>
  filter(都道府県 == "全国")
df_JAmembers

# A tibble: 84 × 4
   都道府県    年 組合    value
   <chr>    <dbl> <chr>   <dbl>
 1 全国      2006 合計  9322431
 2 全国      2005 合計  9188153
 3 全国      2004 合計  9145856
 4 全国      2003 合計  9100072
 5 全国      2002 合計  9071894
 6 全国      2001 合計  9082535
 7 全国      2000 合計  9108596
 8 全国      1999 合計  9125267
 9 全国      1998 合計  9128476
10 全国      1997 合計  9122861
# ℹ 74 more rows
…
