データの整形
…
1 e-Statからデータ取得

次のコードを実行し，欲しいデータを取得しましょう。 次のコードにある statsDataId = "0003406360" の数字はアクセスしたい統計データのIDです。

library(estatapi)

このサービスは、政府統計総合窓口(e-Stat)のAPI機能を使用していますが、サービスの内容は国によって保証されたものではありません。

appId <- keyring::key_get("e-stat")
statsDataId <- "0003406360"
(meta_info <- estat_getMetaInfo(appId = appId, statsDataId = statsDataId))

$cat01
# A tibble: 27 × 5
   `@code` `@name`                               `@level` `@unit` `@parentCode`
   <chr>   <chr>                                 <chr>    <chr>   <chr>        
 1 110     合計_計                               1        人      <NA>         
 2 120     合計_個人                             2        人      110          
 3 130     合計_団体                             2        人      110          
 4 150     正組合員_計                           2        人      110          
 5 160     正組合員_個人                         3        人      150          
 6 170     正組合員_個人_女性                    4        人      160          
 7 180     正組合員_個人_組合員たる地位を失わな… 4        人      160          
 8 190     正組合員_法人                         3        人      150          
 9 200     正組合員_法人_農事組合法人            4        人      190          
10 210     正組合員_法人_その他法人              4        人      190          
# ℹ 17 more rows

$area
# A tibble: 56 × 4
   `@code` `@name`     `@level` `@parentCode`
   <chr>   <chr>       <chr>    <chr>        
 1 00000   全国        1        <NA>         
 2 00200   1組合当たり 1        <NA>         
 3 01000   北海道      2        00000        
 4 01100   東北_小計   2        00000        
 5 02000   青森県      3        01100        
 6 03000   岩手県      3        01100        
 7 04000   宮城県      3        01100        
 8 05000   秋田県      3        01100        
 9 06000   山形県      3        01100        
10 07000   福島県      3        01100        
# ℹ 46 more rows
…
# 統計データ取得
df <- estat_getStatsData(
  appId = appId,
  statsDataId = statsDataId
)

Fetching record 1-14009... (total: 14009 records)

df

# A tibble: 14,009 × 9
   cat01_code 組合員別内訳 area_code 都道府県 time_code `時間軸（年度次）` unit 
   <chr>      <chr>        <chr>     <chr>    <chr>     <chr>              <chr>
 1 110        合計_計      00000     全国     20161000… 2016年度           人   
 2 110        合計_計      00000     全国     20151000… 2015年度           人   
 3 110        合計_計      00000     全国     20141000… 2014年度           人   
 4 110        合計_計      00000     全国     20131000… 2013年度           人   
 5 110        合計_計      00000     全国     20121000… 2012年度           人   
 6 110        合計_計      00000     全国     20111000… 2011年度           人   
 7 110        合計_計      00000     全国     20101000… 2010年度           人   
 8 110        合計_計      00000     全国     20091000… 2009年度           人   
 9 110        合計_計      00000     全国     20081000… 2008年度           人   
10 110        合計_計      00000     全国     20071000… 2007年度           人   
# ℹ 13,999 more rows
# ℹ 2 more variables: value <dbl>, annotation <chr>
…
# _を2つ使っているケースに対応
df2[, "組合員別内訳"] <- apply(df2[, "組合員別内訳", drop = FALSE], 1, function(x) {
  if (length(grep("_", x)) > 0) {
    x <- paste0(sub("_", "（", x), "）")
  }
  return(x)}
)

unique(df2[, "組合員別内訳"])

# A tibble: 27 × 1
   組合員別内訳                                  
   <chr>                                         
 1 合計（計）                                    
 2 合計（個人）                                  
 3 合計（団体）                                  
 4 正組合員（計）                                
 5 正組合員（個人）                              
 6 正組合員（個人（女性））                      
 7 正組合員（個人（組合員たる地位を失わない者））
 8 正組合員（法人）                              
 9 正組合員（法人（農事組合法人））              
10 正組合員（法人（その他法人））                
# ℹ 17 more rows
…
