地図
…
library(estatapi)
library(dplyr)

appId <- keyring::key_get("e-stat")
statsDataId <- "0002066880"
(meta_info <- estat_getMetaInfo(appId = appId, statsDataId = statsDataId))

Warning: `update_list()` was deprecated in purrr 1.0.0.
ℹ The deprecated feature was likely used in the estatapi package.
  Please report the issue at
  <https://github.com/yutannihilation/estatapi/issues>.

$cat01
# A tibble: 57 × 4
   `@code` `@name` `@level` `@parentCode`
   <chr>   <chr>   <chr>    <chr>        
 1 001     北海道  2        057          
 2 002     青森    3        008          
 3 003     岩手    3        008          
 4 004     宮城    3        008          
 5 005     秋田    3        008          
 6 006     山形    3        008          
 7 007     福島    3        008          
 8 008     東北計  2        057          
 9 009     茨城    3        019          
10 010     栃木    3        019          
# ℹ 47 more rows

$cat02
# A tibble: 33 × 5
   `@code` `@name`                                `@level` `@unit` `@parentCode`
   <chr>   <chr>                                  <chr>    <chr>   <chr>        
 1 1001    出資組合（第２表）_総合農協            3        件      1012         
 2 1002    出資組合（第２表）_総合農協_うち共済事業を行う農協…… 4        件      1001         
 3 1003    出資組合（第２表）_一般農協            3        件      1012         
 4 1004    出資組合（第２表）_畜産                3        件      1012         
 5 1005    出資組合（第２表）_酪農                3        件      1012         
 6 1006    出資組合（第２表）_養鶏                3        件      1012         
 7 1007    出資組合（第２表）_牧野管理            3        件      1012         
 8 1008    出資組合（第２表）_園芸特産            3        件      1012         
 9 1009    出資組合（第２表）_農村工業            3        件      1012         
10 1010    出資組合（第２表）_農事放送            3        件      1012         
# ℹ 23 more rows
$.names
# A tibble: 2 × 2
  id    name                   
  <chr> <chr>                  
1 cat01 (R006-02-2-002)都道府県
2 cat02 (r006-02-1-002)区分    

# 統計データ取得
df <- estat_getStatsData(
  appId = appId,
  statsDataId = statsDataId
)
df

# A tibble: 1,881 × 7
   cat01_code `(R006-02-2-002)都道府県` cat02_code `(r006-02-1-002)区分`   unit 
   <chr>      <chr>                     <chr>      <chr>                   <chr>
 1 001        北海道                    1001       出資組合（第２表）_総合農協…… 件   
 2 001        北海道                    1002       出資組合（第２表）_総合農協_うち共済事業を… 件   
 3 001        北海道                    1003       出資組合（第２表）_一般農協…… 件   
 4 001        北海道                    1004       出資組合（第２表）_畜産 件   
 5 001        北海道                    1005       出資組合（第２表）_酪農 件   
 6 001        北海道                    1006       出資組合（第２表）_養鶏 件   
 7 001        北海道                    1007       出資組合（第２表）_牧野管理…… 件   
 8 001        北海道                    1008       出資組合（第２表）_園芸特産…… 件   
 9 001        北海道                    1009       出資組合（第２表）_農村工業…… 件   
10 001        北海道                    1010       出資組合（第２表）_農事放送…… 件   
# ℹ 1,871 more rows
# ℹ 2 more variables: value <dbl>, annotation <chr>
…
