愛媛県のJA
…
このコードでは，それぞれの地域について，11のJAのどこに属するかを 0 と 1 で表しています。 これは次のコードで確認できます。

b[[1]] |>
  sf::st_drop_geometry() |>
  select(starts_with("JA"))

# A tibble: 3,302 × 11
   JAうま JAえひめ中央 JAえひめ南 JAえひめ未来 JAおちいまばり JAにしうわ
    <dbl>        <dbl>      <dbl>        <dbl>          <dbl>      <dbl>
 1      0            1          0            0              0          0
 2      0            1          0            0              0          0
 3      0            1          0            0              0          0
 4      0            1          0            0              0          0
 5      0            1          0            0              0          0
 6      0            1          0            0              0          0
 7      0            1          0            0              0          0
 8      0            1          0            0              0          0
 9      0            1          0            0              0          0
10      0            1          0            0              0          0
# ℹ 3,292 more rows
# ℹ 5 more variables: JAひがしうわ <dbl>, JA今治立花 <dbl>, JA周桑 <dbl>,
#   JA愛媛たいき <dbl>, JA松山市 <dbl>
…
